Course Project 1
…
2. Process/transform the data (if necessary) into a format suitable for your analysis

act$date <- ymd(act$date)

What is mean total number of steps taken per day?

1. Calculate the total number of steps taken per day

act_tot <- act %>%
      group_by(date) %>%
      summarise(tot_steps_day=sum(steps))
print(act_tot)

## # A tibble: 61 x 2
##          date tot_steps_day
##        <date>         <int>
## 1  2012-10-01            NA
## 2  2012-10-02           126
## 3  2012-10-03         11352
## 4  2012-10-04         12116
## 5  2012-10-05         13294
## 6  2012-10-06         15420
## 7  2012-10-07         11015
## 8  2012-10-08            NA
## 9  2012-10-09         12811
## 10 2012-10-10          9900
## # ... with 51 more rows
…
3. Calculate and report the mean and median of the total number of steps taken per day

report <- act %>%
      group_by(date) %>%
      summarise(mean_steps_day=mean(steps), median_steps_day=median(steps))
print(report)

## # A tibble: 61 x 3
##          date mean_steps_day median_steps_day
##        <date>          <dbl>            <dbl>
## 1  2012-10-01             NA               NA
## 2  2012-10-02        0.43750                0
## 3  2012-10-03       39.41667                0
## 4  2012-10-04       42.06944                0
## 5  2012-10-05       46.15972                0
## 6  2012-10-06       53.54167                0
## 7  2012-10-07       38.24653                0
## 8  2012-10-08             NA               NA
## 9  2012-10-09       44.48264                0
## 10 2012-10-10       34.37500                0
## # ... with 51 more rows
…
